{
  "items": [
    {
      "segmentId": "product_business_management",
      "segmentName": "Product Business Management",
      "segmentDataType": "COMPANIES_IN_SEGMENT",
      "segmentDataTotal": 72,
      "segments": [
        {
          "segmentId": "product_business_management__investment_holding_company",
          "segmentName": "Investment Holding Company",
          "segmentDataType": "COMPANIES_IN_SEGMENT",
          "segmentDataTotal": 36,
          "data": [
            {
              "logos": [],
              "companyPbId": "483186-16",
              "companyId": 5257624
            },
            {
              "logos": [],
              "companyPbId": "482054-59",
              "companyId": 5245051
            },
            {
              "logos": [],
              "companyPbId": "466171-93",
              "companyId": 5068577
            },
            {
              "logos": [],
              "companyPbId": "461971-63",
              "companyId": 5021907
            },
            {
              "logos": [],
              "companyPbId": "437887-63",
              "companyId": 4754307
            },
            {
              "logos": [],
              "companyPbId": "470731-33",
              "companyId": 5119237
            },
            {
              "logos": [],
              "companyPbId": "471894-85",
              "companyId": 5132165
            },
            {
              "logos": [],
              "companyPbId": "470545-93",
              "companyId": 5117177
            },
            {
              "logos": [],
              "companyPbId": "466158-70",
              "companyId": 5068430
            },
            {
              "logos": [],
              "companyPbId": "463565-98",
              "companyId": 5039622
            },
            {
              "logos": [],
              "companyPbId": "466795-36",
              "companyId": 5075504
            },
            {
              "logos": [],
              "companyPbId": "463256-56",
              "companyId": 5036184
            },
            {
              "logos": [],
              "companyPbId": "482720-86",
              "companyId": 5252454
            },
            {
              "logos": [],
              "companyPbId": "461826-82",
              "companyId": 5020298
            },
            {
              "logos": [],
              "companyPbId": "483561-91",
              "companyId": 5261799
            },
            {
              "logos": [],
              "companyPbId": "463914-91",
              "companyId": 5043499
            },
            {
              "logos": [],
              "companyPbId": "462524-14",
              "companyId": 5028046
            },
            {
              "logos": [],
              "companyPbId": "483651-64",
              "companyId": 5262796
            },
            {
              "logos": [],
              "companyPbId": "482597-74",
              "companyId": 5251086
            },
            {
              "logos": [],
              "companyPbId": "462803-68",
              "companyId": 5031152
            },
            {
              "logos": [],
              "companyPbId": "471750-49",
              "companyId": 5130561
            },
            {
              "logos": [],
              "companyPbId": "483212-17",
              "companyId": 5257913
            },
            {
              "logos": [],
              "companyPbId": "460001-62",
              "companyId": 5000018
            },
            {
              "logos": [],
              "companyPbId": "459912-70",
              "companyId": 4999030
            },
            {
              "logos": [],
              "companyPbId": "468948-97",
              "companyId": 5099433
            },
            {
              "logos": [],
              "companyPbId": "462806-92",
              "companyId": 5031188
            },
            {
              "logos": [],
              "companyPbId": "461803-42",
              "companyId": 5020038
            },
            {
              "logos": [],
              "companyPbId": "481169-89",
              "companyId": 5235221
            },
            {
              "logos": [],
              "companyPbId": "483566-41",
              "companyId": 5261849
            },
            {
              "logos": [],
              "companyPbId": "460013-95",
              "companyId": 5000155
            },
            {
              "logos": [],
              "companyPbId": "465638-86",
              "companyId": 5062654
            },
            {
              "logos": [],
              "companyPbId": "462746-53",
              "companyId": 5030517
            },
            {
              "logos": [],
              "companyPbId": "462460-87",
              "companyId": 5027343
            },
            {
              "logos": [],
              "companyPbId": "460097-38",
              "companyId": 5001082
            },
            {
              "logos": [],
              "companyPbId": "461855-62",
              "companyId": 5020618
            },
            {
              "logos": [],
              "companyPbId": "471205-09",
              "companyId": 5124501
            }
          ],
          "segments": []
        },
        {
          "segmentId": "product_business_management__holding_company_operator",
          "segmentName": "Holding Company Operator",
          "segmentDataType": "COMPANIES_IN_SEGMENT",
          "segmentDataTotal": 36,
          "data": [
            {
              "logos": [
                {
                  "width": 200,
                  "height": 200,
                  "url": "//image.pitchbook.com/rjuNXBLkKzbhuWCNHIISPQLG6Bi1616667941207_200x200"
                },
                {
                  "width": 140,
                  "height": 140,
                  "url": "//image.pitchbook.com/cPMUP3ineRuWu2baXYrBjSz1UZd1616667941269_140x140"
                },
                {
                  "width": 70,
                  "height": 70,
                  "url": "//image.pitchbook.com/5IBlxuyDNVR0u4sBRvWMJMjF5C3tT1616667941339_70x70"
                },
                {
                  "width": 110,
                  "height": 110,
                  "url": "//image.pitchbook.com/ytdlnGq49vz1qCPDMGLqvPNO6Tu1616667941426_110x110"
                },
                {
                  "width": 50,
                  "height": 50,
                  "url": "//image.pitchbook.com/fXSnUvq7ffgcDGsahePWcTNWstBw51616667941499_50x50"
                }
              ],
              "favicon": "//image.pitchbook.com/favicon/gigcapital6-com.png",
              "companyPbId": "462570-94",
              "companyId": 5028566
            },
            {
              "logos": [],
              "companyPbId": "469661-68",
              "companyId": 5107352
            },
            {
              "logos": [],
              "companyPbId": "462002-32",
              "companyId": 5022248
            },
            {
              "logos": [],
              "companyPbId": "465890-68",
              "companyId": 5065452
            },
            {
              "logos": [
                {
                  "width": 200,
                  "height": 200,
                  "url": "//image.pitchbook.com/7ieaLNXU7kCVGIdcaoH5y1VGDHc1628586268965_200x200"
                },
                {
                  "width": 140,
                  "height": 140,
                  "url": "//image.pitchbook.com/lvuDXnafjhyBwClzA6NHAjHTvFg1628586269040_140x140"
                },
                {
                  "width": 70,
                  "height": 70,
                  "url": "//image.pitchbook.com/30O05nxLGrFZxlJpTYvQyDy927d7r1628586269133_70x70"
                },
                {
                  "width": 110,
                  "height": 110,
                  "url": "//image.pitchbook.com/2ZIZtMyWBcxeLVKG2xLMmuHVohd1628586269243_110x110"
                },
                {
                  "width": 50,
                  "height": 50,
                  "url": "//image.pitchbook.com/wjwMQ0tnYBG4v3z0qxTP7i405BMVV1628586269339_50x50"
                }
              ],
              "companyPbId": "471316-60",
              "companyId": 5125740
            },
            {
              "logos": [
                {
                  "width": 200,
                  "height": 200,
                  "url": "//image.pitchbook.com/Xo2QeJ4Wy5ABj6kILRVNdjRhv4X1627465004563_200x200"
                },
                {
                  "width": 140,
                  "height": 140,
                  "url": "//image.pitchbook.com/b03pRbPZgSABP8QDTyw36kmiDjF1627465004640_140x140"
                },
                {
                  "width": 70,
                  "height": 70,
                  "url": "//image.pitchbook.com/nOJL4wqNaalB3WTpApgMMhz97tYWc1627465004698_70x70"
                },
                {
                  "width": 110,
                  "height": 110,
                  "url": "//image.pitchbook.com/7nHE8w47iAb9a2Of0m1U5fSY5ol1627465004776_110x110"
                },
                {
                  "width": 50,
                  "height": 50,
                  "url": "//image.pitchbook.com/HwHQFY5MfJJLDrlFeNO3bJRTpzgZ61627465004848_50x50"
                }
              ],
              "companyPbId": "470815-75",
              "companyId": 5120175
            },
            {
              "logos": [],
              "companyPbId": "470598-04",
              "companyId": 5117756
            },
            {
              "logos": [],
              "companyPbId": "471725-47",
              "companyId": 5130283
            },
            {
              "logos": [],
              "companyPbId": "483113-08",
              "companyId": 5256812
            },
            {
              "logos": [],
              "companyPbId": "481973-95",
              "companyId": 5244155
            },
            {
              "logos": [],
              "companyPbId": "469579-69",
              "companyId": 5106441
            },
            {
              "logos": [],
              "companyPbId": "482564-35",
              "companyId": 5250715
            },
            {
              "logos": [],
              "companyPbId": "471546-64",
              "companyId": 5128296
            },
            {
              "logos": [],
              "companyPbId": "471205-90",
              "companyId": 5124510
            },
            {
              "logos": [],
              "companyPbId": "483399-46",
              "companyId": 5259994
            },
            {
              "logos": [],
              "companyPbId": "439168-15",
              "companyId": 4768535
            },
            {
              "logos": [],
              "companyPbId": "472451-50",
              "companyId": 5138350
            },
            {
              "logos": [],
              "companyPbId": "483511-24",
              "companyId": 5261236
            },
            {
              "logos": [
                {
                  "width": 200,
                  "height": 200,
                  "url": "//image.pitchbook.com/pTrBdLJtBuo6yo8HsoNwgK7STi71624607544542_200x200"
                },
                {
                  "width": 140,
                  "height": 140,
                  "url": "//image.pitchbook.com/ApMGQjZQo8nGaNfXGgzYZwgXzUv1624607544603_140x140"
                },
                {
                  "width": 70,
                  "height": 70,
                  "url": "//image.pitchbook.com/exzAyKQjCqeeyDzV6vOfdN4JpG2Vo1624607544669_70x70"
                },
                {
                  "width": 110,
                  "height": 110,
                  "url": "//image.pitchbook.com/kbKbO8cCqQEG7ePvPdUTnyAZ5UK1624607544764_110x110"
                },
                {
                  "width": 50,
                  "height": 50,
                  "url": "//image.pitchbook.com/zzsrXs5EwpZ5URqBLeF93invkSgJH1624607544827_50x50"
                }
              ],
              "companyPbId": "463349-17",
              "companyId": 5037213
            },
            {
              "logos": [],
              "companyPbId": "463473-01",
              "companyId": 5038589
            },
            {
              "logos": [],
              "companyPbId": "470527-30",
              "companyId": 5116970
            },
            {
              "logos": [],
              "companyPbId": "468950-77",
              "companyId": 5099453
            },
            {
              "logos": [],
              "companyPbId": "482663-26",
              "companyId": 5251814
            },
            {
              "logos": [],
              "companyPbId": "462570-58",
              "companyId": 5028562
            },
            {
              "logos": [],
              "companyPbId": "463028-59",
              "companyId": 5033651
            },
            {
              "logos": [],
              "companyPbId": "482317-75",
              "companyId": 5247975
            },
            {
              "logos": [],
              "companyPbId": "483401-35",
              "companyId": 5260015
            },
            {
              "logos": [],
              "companyPbId": "462894-67",
              "companyId": 5032163
            },
            {
              "logos": [],
              "companyPbId": "471066-13",
              "companyId": 5122957
            },
            {
              "logos": [],
              "companyPbId": "483512-23",
              "companyId": 5261247
            },
            {
              "logos": [],
              "companyPbId": "482663-44",
              "companyId": 5251816
            },
            {
              "logos": [],
              "companyPbId": "462936-88",
              "companyId": 5032632
            },
            {
              "logos": [],
              "companyPbId": "461885-68",
              "companyId": 5020952
            },
            {
              "logos": [],
              "companyPbId": "482837-50",
              "companyId": 5253750
            },
            {
              "logos": [],
              "companyPbId": "468952-66",
              "companyId": 5099474
            },
            {
              "logos": [],
              "companyPbId": "463168-09",
              "companyId": 5035201
            }
          ],
          "segments": []
        }
      ]
    },
    {
      "segmentId": "software_services",
      "segmentName": "Software Services",
      "segmentDataType": "COMPANIES_IN_SEGMENT",
      "segmentDataTotal": 56,
      "data": [
        {
          "logos": [
            {
              "width": 200,
              "height": 200,
              "url": "//image.pitchbook.com/W3drrnNUxyFUcEfvRfUaEGc2xM01628773760390_200x200"
            },
            {
              "width": 140,
              "height": 140,
              "url": "//image.pitchbook.com/7NKUkR4f88p7D9XLhQCpwdQBVDm1628773760521_140x140"
            },
            {
              "width": 70,
              "height": 70,
              "url": "//image.pitchbook.com/Ugr1TOc3OkGgq4MXEYo23ZYkQQxtv1628773760658_70x70"
            },
            {
              "width": 110,
              "height": 110,
              "url": "//image.pitchbook.com/Mf2T5yyq3V0duYj0apiyjyRc9Mf1628773760787_110x110"
            },
            {
              "width": 50,
              "height": 50,
              "url": "//image.pitchbook.com/GlXbxWKYxwSM0VAuEMB2lKLeujxuT1628773760936_50x50"
            }
          ],
          "favicon": "//image.pitchbook.com/favicon/paytm-com.png",
          "companyPbId": "39605-77",
          "companyId": 328953
        },
        {
          "logos": [
            {
              "width": 200,
              "height": 200,
              "url": "//image.pitchbook.com/jYp7DVFLtc8luZvcw2AdeL6Gxte1625672611663_200x200"
            },
            {
              "width": 140,
              "height": 140,
              "url": "//image.pitchbook.com/K65wKQOhtm6jBgQtBzSkCDruEVC1625672611796_140x140"
            },
            {
              "width": 70,
              "height": 70,
              "url": "//image.pitchbook.com/yYChkj5FxeBmU3W89tFJ2aqQHKQQt1625672612027_70x70"
            },
            {
              "width": 110,
              "height": 110,
              "url": "//image.pitchbook.com/zfzE11DcPMjSfGwbauq14k1i5MJ1625672612137_110x110"
            },
            {
              "width": 50,
              "height": 50,
              "url": "//image.pitchbook.com/euIrQALfxiNpi3weHHAFwumkFgeL91625672612266_50x50"
            }
          ],
          "favicon": "//image.pitchbook.com/favicon/authenticbrands-com.png",
          "companyPbId": "43024-60",
          "companyId": 366940
        },
        {
          "logos": [
            {
              "width": 200,
              "height": 200,
              "url": "//image.pitchbook.com/nPXGdlRYuLiYXhanZsotgn2GEGo1578686017226_200x200"
            },
            {
              "width": 140,
              "height": 140,
              "url": "//image.pitchbook.com/KPwLjKWNsllLNnhZakw1ysMaAsk1578686017467_140x140"
            },
            {
              "width": 70,
              "height": 70,
              "url": "//image.pitchbook.com/2L81oRT9JzZM48jFCYv0KKb4bt1kD1578686017698_70x70"
            },
            {
              "width": 110,
              "height": 110,
              "url": "//image.pitchbook.com/l2rmSZvdYzFS2KFs0j8RViWlVmn1578686017927_110x110"
            },
            {
              "width": 50,
              "height": 50,
              "url": "//image.pitchbook.com/huPsiZ7amdoNIT1zHYKRoMjQSzJUP1578686018162_50x50"
            }
          ],
          "favicon": "//image.pitchbook.com/favicon/xiaohongshu-com.png",
          "companyPbId": "64710-82",
          "companyId": 607898
        },
        {
          "logos": [
            {
              "width": 200,
              "height": 200,
              "url": "//image.pitchbook.com/WMxV0uThAt7YgPon5cLAxaiwCYy1610669583335_200x200"
            },
            {
              "width": 140,
              "height": 140,
              "url": "//image.pitchbook.com/l1ZaW0Z7aNDzAWkaSRRDJRebja81610669583496_140x140"
            },
            {
              "width": 70,
              "height": 70,
              "url": "//image.pitchbook.com/8oGCtqfL71BKUPvE53VtRFwUehy4d1610669583601_70x70"
            },
            {
              "width": 110,
              "height": 110,
              "url": "//image.pitchbook.com/31r3afYjDx3SgBFGwgfZQ1ltpVA1610669583706_110x110"
            },
            {
              "width": 50,
              "height": 50,
              "url": "//image.pitchbook.com/PhKMgQ8dOPQbQV1VAhWlQxp3ar4Yu1610669583810_50x50"
            }
          ],
          "favicon": "//image.pitchbook.com/favicon/wedoctor-com.png",
          "companyPbId": "98273-44",
          "companyId": 980816
        },
        {
          "logos": [
            {
              "width": 200,
              "height": 200,
              "url": "//image.pitchbook.com/Uryue5rg801lrneseXPVZQ8Xrug1605448855218_200x200"
            },
            {
              "width": 140,
              "height": 140,
              "url": "//image.pitchbook.com/EqrKSZXkeUoLU1CtnNrHIYPUm681605448855393_140x140"
            },
            {
              "width": 70,
              "height": 70,
              "url": "//image.pitchbook.com/BHKfaM3Qj2qSJjkPBxxChf1hOmjVT1605448855516_70x70"
            },
            {
              "width": 110,
              "height": 110,
              "url": "//image.pitchbook.com/xUAxm3kYNRN3G78DAAEaugG3UZU1605448855620_110x110"
            },
            {
              "width": 50,
              "height": 50,
              "url": "//image.pitchbook.com/Xf8GTX1ZB1WGhK4vWz4sfrBl3IRgR1605448855745_50x50"
            }
          ],
          "favicon": "//image.pitchbook.com/favicon/pinelabs-com.png",
          "companyPbId": "12648-25",
          "companyId": 29425
        },
        {
          "logos": [
            {
              "width": 200,
              "height": 200,
              "url": "//image.pitchbook.com/Pn67zTMDre5quw2vYqr3RFWq17L1630595901168_200x200"
            },
            {
              "width": 140,
              "height": 140,
              "url": "//image.pitchbook.com/yKKQHznq4jeJlT3ghJSC3Z5D9Ew1630595901309_140x140"
            },
            {
              "width": 70,
              "height": 70,
              "url": "//image.pitchbook.com/qI3Eh4I6zC3SbkXLxDUCMPHFDrhoS1630595901437_70x70"
            },
            {
              "width": 110,
              "height": 110,
              "url": "//image.pitchbook.com/9mfmdxGSMpWhBgZ7JpAuGn7NWS41630595901560_110x110"
            },
            {
              "width": 50,
              "height": 50,
              "url": "//image.pitchbook.com/bGo9TTrEsktLvd1Y00hFfywITPTL31630595901718_50x50"
            }
          ],
          "favicon": "//image.pitchbook.com/favicon/samsara-com.png",
          "companyPbId": "110586-97",
          "companyId": 1117633
        },
        {
          "logos": [
            {
              "width": 200,
              "height": 200,
              "url": "//image.pitchbook.com/jthVtobeESQKXkjFj8RRULFJmp01605381653763_200x200"
            },
            {
              "width": 140,
              "height": 140,
              "url": "//image.pitchbook.com/dtCVz47hIyVH6YsOshVaO5tqQXf1605381653863_140x140"
            },
            {
              "width": 70,
              "height": 70,
              "url": "//image.pitchbook.com/cRksnTVspcL3VXS4NI4yI6b3eldIb1605381653960_70x70"
            },
            {
              "width": 110,
              "height": 110,
              "url": "//image.pitchbook.com/UELCYuC1OO4pJEneF0ovLQPS72U1605381654120_110x110"
            },
            {
              "width": 50,
              "height": 50,
              "url": "//image.pitchbook.com/Adoqko8QQx5Ln9mgSLOLof9h0uJVu1605381654300_50x50"
            }
          ],
          "favicon": "//image.pitchbook.com/favicon/houzz-com.png",
          "companyPbId": "51270-13",
          "companyId": 458557
        },
        {
          "logos": [
            {
              "width": 200,
              "height": 200,
              "url": "//image.pitchbook.com/vrxG0B0BvYjgZQa5AbPS1r0k0Je1634645016265_200x200"
            },
            {
              "width": 140,
              "height": 140,
              "url": "//image.pitchbook.com/dXL9OIVnDwhnJHNzzZtDzhKr9m91634645016395_140x140"
            },
            {
              "width": 70,
              "height": 70,
              "url": "//image.pitchbook.com/cjUScrp7BqMFquT4dkiSosCr5Ms0X1634645016503_70x70"
            },
            {
              "width": 110,
              "height": 110,
              "url": "//image.pitchbook.com/UuxZFEnmhI6t0xCU5PyijY8255O1634645016613_110x110"
            },
            {
              "width": 50,
              "height": 50,
              "url": "//image.pitchbook.com/L8XmrWtuz67X3X1efgoG1UTnQoRkH1634645016727_50x50"
            }
          ],
          "favicon": "//image.pitchbook.com/favicon/glg-it.png",
          "companyPbId": "11423-08",
          "companyId": 15812
        },
        {
          "logos": [
            {
              "width": 200,
              "height": 200,
              "url": "//image.pitchbook.com/wIMX9F5WoH6EQ5vFm7eGX7I2IhB1579904110918_200x200"
            },
            {
              "width": 140,
              "height": 140,
              "url": "//image.pitchbook.com/B1GG7maVa4HZN0W5nHHWwAWjiDP1579904111179_140x140"
            },
            {
              "width": 70,
              "height": 70,
              "url": "//image.pitchbook.com/b7J1s3bqWTfe5bdkC0RAAZL5ic3Q61579904111428_70x70"
            },
            {
              "width": 110,
              "height": 110,
              "url": "//image.pitchbook.com/vR7LdHumUcxeQ5GiuJqz5RRpJ8C1579904111689_110x110"
            },
            {
              "width": 50,
              "height": 50,
              "url": "//image.pitchbook.com/v6nsjs20BGUN8QUpSVU9ZoSr49F1Q1579904111958_50x50"
            }
          ],
          "favicon": "//image.pitchbook.com/favicon/cloudwalk-com.png",
          "companyPbId": "222518-53",
          "companyId": 2361317
        },
        {
          "logos": [
            {
              "width": 200,
              "height": 200,
              "url": "//image.pitchbook.com/Had5WdOkrcVVhitsLh8LVXyHctj1572628725386_200x200"
            },
            {
              "width": 140,
              "height": 140,
              "url": "//image.pitchbook.com/nrA4hTKyQGJn1GARpKR8d0xuKvi1572628725600_140x140"
            },
            {
              "width": 70,
              "height": 70,
              "url": "//image.pitchbook.com/srT04fJSsWvz1BVEG06KWTcYBZpdj1572628725751_70x70"
            },
            {
              "width": 110,
              "height": 110,
              "url": "//image.pitchbook.com/RImw4WNrkMG4CcrYASNx4p5WXsw1572628725901_110x110"
            },
            {
              "width": 50,
              "height": 50,
              "url": "//image.pitchbook.com/PDwP7gcApf1ngBSNiIGVfeFwMaDzl1572628726130_50x50"
            }
          ],
          "favicon": "//image.pitchbook.com/favicon/intellif-com.png",
          "companyPbId": "339781-33",
          "companyId": 3664237
        },
        {
          "logos": [
            {
              "width": 200,
              "height": 200,
              "url": "//image.pitchbook.com/BXRkEGDBBdSYRDPSH3z0hwgcfAR1633107295311_200x200"
            },
            {
              "width": 140,
              "height": 140,
              "url": "//image.pitchbook.com/Pjs6G380dSlm3KbrOjOtkThZ0NC1633107295442_140x140"
            },
            {
              "width": 70,
              "height": 70,
              "url": "//image.pitchbook.com/2k85rX25T1WxzWBF1ldG9Ttbkhilu1633107295570_70x70"
            },
            {
              "width": 110,
              "height": 110,
              "url": "//image.pitchbook.com/2snyCIndEaPdeRAQFhvx6yOCS9E1633107295682_110x110"
            },
            {
              "width": 50,
              "height": 50,
              "url": "//image.pitchbook.com/oTG1WlAbnol57Sxtsq2tuDAAWFxLn1633107295787_50x50"
            }
          ],
          "favicon": "//image.pitchbook.com/favicon/softline-ru.png",
          "companyPbId": "55443-16",
          "companyId": 504924
        },
        {
          "logos": [
            {
              "width": 200,
              "height": 200,
              "url": "//image.pitchbook.com/9veqgDIwdFcXeqrLq2Xt1SRgb661618369217908_200x200"
            },
            {
              "width": 140,
              "height": 140,
              "url": "//image.pitchbook.com/FAyCAUdGe4Gkd1v0GvaDRIJr1VW1618369218018_140x140"
            },
            {
              "width": 70,
              "height": 70,
              "url": "//image.pitchbook.com/VEEbflaYjIZWgidx0GGFdbiOm02Mu1618369218133_70x70"
            },
            {
              "width": 110,
              "height": 110,
              "url": "//image.pitchbook.com/4koAv9XHAf8EISbADQwrIgoUIdz1618369218251_110x110"
            },
            {
              "width": 50,
              "height": 50,
              "url": "//image.pitchbook.com/v0gB5W4d1FAsFAWaImmAN426LBioa1618369218373_50x50"
            }
          ],
          "favicon": "//image.pitchbook.com/favicon/inmobi-com.png",
          "companyPbId": "42183-64",
          "companyId": 357596
        },
        {
          "logos": [
            {
              "width": 200,
              "height": 200,
              "url": "//image.pitchbook.com/zUP8MTcFwbmIh24e9eNrBq9yxLu1631550623621_200x200"
            },
            {
              "width": 140,
              "height": 140,
              "url": "//image.pitchbook.com/X8CCSxhuagmQTrnBMNozz8UxC8E1631550623748_140x140"
            },
            {
              "width": 70,
              "height": 70,
              "url": "//image.pitchbook.com/Se6B2aEhGiINV94SN9JWDj7z1JvXR1631550623891_70x70"
            },
            {
              "width": 110,
              "height": 110,
              "url": "//image.pitchbook.com/jp6sgiFVnoicUxq0eL4tBov5TWQ1631550623999_110x110"
            },
            {
              "width": 50,
              "height": 50,
              "url": "//image.pitchbook.com/TQQEYhZV0KT81CXjN4YSdWHwIWTeY1631550624099_50x50"
            }
          ],
          "favicon": "//image.pitchbook.com/favicon/biocytogen-com.png",
          "companyPbId": "58558-33",
          "companyId": 539537
        },
        {
          "logos": [
            {
              "width": 200,
              "height": 200,
              "url": "//image.pitchbook.com/FRtaEseqNqGp3Z8A31HKdGFcTSS1621883849955_200x200"
            },
            {
              "width": 140,
              "height": 140,
              "url": "//image.pitchbook.com/vS1x9fMGn7aPbw3DIOfUZiDDVDz1621883850018_140x140"
            },
            {
              "width": 70,
              "height": 70,
              "url": "//image.pitchbook.com/rkiPyTyEl0g0rPsP7LVo3SWhounqA1621883850107_70x70"
            },
            {
              "width": 110,
              "height": 110,
              "url": "//image.pitchbook.com/rhedIWUdHFjh7YUxO6BS6JCkIgT1621883850175_110x110"
            },
            {
              "width": 50,
              "height": 50,
              "url": "//image.pitchbook.com/RjDD1CMUv9y9HOvqU8pzmue2ma6Vn1621883850250_50x50"
            }
          ],
          "companyPbId": "436757-32",
          "companyId": 4741748
        },
        {
          "logos": [
            {
              "width": 200,
              "height": 200,
              "url": "//image.pitchbook.com/Vp8dHiQOykuwFyUugPJ7VfhEIjA1619720497882_200x200"
            },
            {
              "width": 140,
              "height": 140,
              "url": "//image.pitchbook.com/5Z9J0LtfKG0PelnzNeU0AGt2vrF1619720498010_140x140"
            },
            {
              "width": 70,
              "height": 70,
              "url": "//image.pitchbook.com/uDVWp30QiAwA4DtOdrilaJF2e0oWe1619720498162_70x70"
            },
            {
              "width": 110,
              "height": 110,
              "url": "//image.pitchbook.com/f3GcQSWYFK8TcQLnlQl6tmbSY471619720498280_110x110"
            },
            {
              "width": 50,
              "height": 50,
              "url": "//image.pitchbook.com/ND82sqdWTzDF6IxEGZTivzwFp8NIx1619720498401_50x50"
            }
          ],
          "favicon": "//image.pitchbook.com/favicon/longsys-com.png",
          "companyPbId": "177421-96",
          "companyId": 1860244
        },
        {
          "logos": [
            {
              "width": 200,
              "height": 200,
              "url": "//image.pitchbook.com/yBfBSX72EFhd6QfIimTuUj93Z3w1624870243287_200x200"
            },
            {
              "width": 140,
              "height": 140,
              "url": "//image.pitchbook.com/JfKLvzuGzYwXRc45WKiMDFcRdXm1624870243424_140x140"
            },
            {
              "width": 70,
              "height": 70,
              "url": "//image.pitchbook.com/Q16vydMgZySZZxjN6s6eCUKemoJr61624870243546_70x70"
            },
            {
              "width": 110,
              "height": 110,
              "url": "//image.pitchbook.com/XLJdhjIATwdfEl0edOgusk5Ftgy1624870243668_110x110"
            },
            {
              "width": 50,
              "height": 50,
              "url": "//image.pitchbook.com/Py3Cqz1gzLeRszWIcd8dM5MEQgJaH1624870243893_50x50"
            }
          ],
          "favicon": "//image.pitchbook.com/favicon/mobikwik-com.png",
          "companyPbId": "92161-45",
          "companyId": 912905
        },
        {
          "logos": [
            {
              "width": 200,
              "height": 200,
              "url": "//image.pitchbook.com/HIZg434HRhukgLfzl8Vn2nuVmpH1621277913357_200x200"
            },
            {
              "width": 140,
              "height": 140,
              "url": "//image.pitchbook.com/9DOyK1NsjcQ6XZbIpxYLUiEa8WJ1621277913473_140x140"
            },
            {
              "width": 70,
              "height": 70,
              "url": "//image.pitchbook.com/kuMMAawrygV3pDKc45MMD98H4jyLQ1621277913574_70x70"
            },
            {
              "width": 110,
              "height": 110,
              "url": "//image.pitchbook.com/BfLoooYtNALDi9NufzptidOzc5f1621277913679_110x110"
            },
            {
              "width": 50,
              "height": 50,
              "url": "//image.pitchbook.com/aUuywNtox3miIUsrD5Iosa3Kc0YUW1621277913780_50x50"
            }
          ],
          "favicon": "//image.pitchbook.com/favicon/kujiale-com.png",
          "companyPbId": "111550-60",
          "companyId": 1128340
        },
        {
          "logos": [
            {
              "width": 200,
              "height": 200,
              "url": "//image.pitchbook.com/ofTiHLOq9cRXoqrfeHRvhXgG3Fg1603855058478_200x200"
            },
            {
              "width": 140,
              "height": 140,
              "url": "//image.pitchbook.com/9NrSwrgECGXu2sSTtfLaRecS3Vb1603855058586_140x140"
            },
            {
              "width": 70,
              "height": 70,
              "url": "//image.pitchbook.com/qTBXAuTePfwoZ1sOoxooIEk6Opd9y1603855058696_70x70"
            },
            {
              "width": 110,
              "height": 110,
              "url": "//image.pitchbook.com/j3EyhFdMC3Xvft6eCwc9Rk3NGG91603855058806_110x110"
            },
            {
              "width": 50,
              "height": 50,
              "url": "//image.pitchbook.com/MzSEV2nqUktlwMEqs8D3jdbOzNEQR1603855058937_50x50"
            }
          ],
          "favicon": "//image.pitchbook.com/favicon/usertesting-com.png",
          "companyPbId": "54118-45",
          "companyId": 490205
        },
        {
          "logos": [
            {
              "width": 200,
              "height": 200,
              "url": "//image.pitchbook.com/n49IaqG371HogeBlzfXBehmjUDi1625779566502_200x200"
            },
            {
              "width": 140,
              "height": 140,
              "url": "//image.pitchbook.com/mOpiFi5jAqIaXtWgltpFruqeaIW1625779566619_140x140"
            },
            {
              "width": 70,
              "height": 70,
              "url": "//image.pitchbook.com/ROT3rtzLOjmArb4i8kpImdNIHwjMv1625779566727_70x70"
            },
            {
              "width": 110,
              "height": 110,
              "url": "//image.pitchbook.com/hrvi6HuuQm0duEeTmMKyR7mtYZu1625779566891_110x110"
            },
            {
              "width": 50,
              "height": 50,
              "url": "//image.pitchbook.com/C1YBmHu8UUW0hkY84dwo5ERimA33j1625779566998_50x50"
            }
          ],
          "favicon": "//image.pitchbook.com/favicon/sunmi-com.png",
          "companyPbId": "222690-61",
          "companyId": 2363229
        },
        {
          "logos": [
            {
              "width": 200,
              "height": 200,
              "url": "//image.pitchbook.com/fpTlslhvJITypv1l1LZZPe8V2tO1617220081166_200x200"
            },
            {
              "width": 140,
              "height": 140,
              "url": "//image.pitchbook.com/1V98RgQRwmzQeishffflNQ4gCL41617220081281_140x140"
            },
            {
              "width": 70,
              "height": 70,
              "url": "//image.pitchbook.com/OLyO3RjzuSENuiwe28xwwiOZsAjKt1617220081443_70x70"
            },
            {
              "width": 110,
              "height": 110,
              "url": "//image.pitchbook.com/b83PX2hkspm8EQM9Qh1JlmzG9T21617220081566_110x110"
            },
            {
              "width": 50,
              "height": 50,
              "url": "//image.pitchbook.com/oCpgldR1q7EKKsAEoDZQ6dvv4FQsZ1617220081673_50x50"
            }
          ],
          "favicon": "//image.pitchbook.com/favicon/onestreamsoftware-com.png",
          "companyPbId": "130818-34",
          "companyId": 1342426
        },
        {
          "logos": [
            {
              "width": 200,
              "height": 200,
              "url": "//image.pitchbook.com/cLRIdmMi95ZIobImSaQvy67rzv81633526355029_200x200"
            },
            {
              "width": 140,
              "height": 140,
              "url": "//image.pitchbook.com/pVzqLgx2WFBhXRX1RxM29AuxSJu1633526355141_140x140"
            },
            {
              "width": 70,
              "height": 70,
              "url": "//image.pitchbook.com/09xftP0tH48OMnyMzhH6KXtaqtHsx1633526355275_70x70"
            },
            {
              "width": 110,
              "height": 110,
              "url": "//image.pitchbook.com/HvA4InePn8xuteuse5xu9WhbkJp1633526355408_110x110"
            },
            {
              "width": 50,
              "height": 50,
              "url": "//image.pitchbook.com/76aJsQda0QJ6rklrjIsGNGP3VXCOx1633526355579_50x50"
            }
          ],
          "favicon": "//image.pitchbook.com/favicon/rigetti-com.png",
          "companyPbId": "65891-35",
          "companyId": 621015
        },
        {
          "logos": [
            {
              "width": 200,
              "height": 200,
              "url": "//image.pitchbook.com/bAMnrdhGjxMXxxr59y3TOVagW7h1612881825250_200x200"
            },
            {
              "width": 140,
              "height": 140,
              "url": "//image.pitchbook.com/6j4QysfhK46E64mxyPxDVWEiihx1612881825411_140x140"
            },
            {
              "width": 70,
              "height": 70,
              "url": "//image.pitchbook.com/wHJDqUoJ5EnvUyAloABW15e8A41Jr1612881825522_70x70"
            },
            {
              "width": 110,
              "height": 110,
              "url": "//image.pitchbook.com/kfX2Dl5XoA58AGPHh8TMnfs5hO21612881825721_110x110"
            },
            {
              "width": 50,
              "height": 50,
              "url": "//image.pitchbook.com/Jjeh9C9dpsXFWkWuLHcFUxlE160xM1612881825860_50x50"
            }
          ],
          "favicon": "//image.pitchbook.com/favicon/braze-com.png",
          "companyPbId": "53939-98",
          "companyId": 488222
        },
        {
          "logos": [
            {
              "width": 200,
              "height": 200,
              "url": "//image.pitchbook.com/bRzZO6z0vt6lNhFxPFewt6ZdsaU1630477260132_200x200"
            },
            {
              "width": 140,
              "height": 140,
              "url": "//image.pitchbook.com/6agAbIIP5SfGL4OoBh6dNLnMXqq1630477260255_140x140"
            },
            {
              "width": 70,
              "height": 70,
              "url": "//image.pitchbook.com/QZpwbl4FZmMLAYN4NNLTIH0ciSnS31630477260375_70x70"
            },
            {
              "width": 110,
              "height": 110,
              "url": "//image.pitchbook.com/yHKVQILAYd6JXSTOTFlGtbTKin61630477260549_110x110"
            },
            {
              "width": 50,
              "height": 50,
              "url": "//image.pitchbook.com/j29eg4ykxnCZnqma3k5UtIoLJMi7D1630477260728_50x50"
            }
          ],
          "favicon": "//image.pitchbook.com/favicon/getweave-com.png",
          "companyPbId": "61545-88",
          "companyId": 572732
        },
        {
          "logos": [
            {
              "width": 200,
              "height": 200,
              "url": "//image.pitchbook.com/buGc9pfEhtL2kJ1oPQtYVnPGOfp1632751672264_200x200"
            },
            {
              "width": 140,
              "height": 140,
              "url": "//image.pitchbook.com/yUxOWOkIEVH5Qde3UIfDeShVG5z1632751672396_140x140"
            },
            {
              "width": 70,
              "height": 70,
              "url": "//image.pitchbook.com/sAp9m3D0NiNHZmXDFA2tMFGH8enhy1632751672508_70x70"
            },
            {
              "width": 110,
              "height": 110,
              "url": "//image.pitchbook.com/WmGGINsjwCwjpShyHEVHTXJ00Q91632751672628_110x110"
            },
            {
              "width": 50,
              "height": 50,
              "url": "//image.pitchbook.com/C1AECIqULrv696JnAOrJtRNIKxiRo1632751672748_50x50"
            }
          ],
          "favicon": "//image.pitchbook.com/favicon/justworks-com.png",
          "companyPbId": "59990-50",
          "companyId": 555450
        },
        {
          "logos": [
            {
              "width": 200,
              "height": 200,
              "url": "//image.pitchbook.com/hJKpow22D6LjkRzgSkZJtny9oZt1602495309644_200x200"
            },
            {
              "width": 140,
              "height": 140,
              "url": "//image.pitchbook.com/BiERfsvCroAN3ovFH8hY8eo7epo1602495309761_140x140"
            },
            {
              "width": 70,
              "height": 70,
              "url": "//image.pitchbook.com/O10Zpr3IXnLscQJobVFhTDpzjQp6p1602495309925_70x70"
            },
            {
              "width": 110,
              "height": 110,
              "url": "//image.pitchbook.com/nc56F9O7sFd61cE0aCs8KcdG5y01602495310051_110x110"
            },
            {
              "width": 50,
              "height": 50,
              "url": "//image.pitchbook.com/CBUjqJgSvS18tYmoKktjSf1lvPYo41602495310247_50x50"
            }
          ],
          "favicon": "//image.pitchbook.com/favicon/intermedia-net.png",
          "companyPbId": "52228-81",
          "companyId": 469209
        },
        {
          "logos": [
            {
              "width": 200,
              "height": 200,
              "url": "//image.pitchbook.com/jEjpzXVGnQBN7g7AmFpTUmVW2Dg1605420040504_200x200"
            },
            {
              "width": 140,
              "height": 140,
              "url": "//image.pitchbook.com/Ok84fX6vspYB43BSQemuy7H7dcQ1605420040604_140x140"
            },
            {
              "width": 70,
              "height": 70,
              "url": "//image.pitchbook.com/Uqq9LUaIbz9SnTxbq7oRnrjuEJKi41605420040717_70x70"
            },
            {
              "width": 110,
              "height": 110,
              "url": "//image.pitchbook.com/yJdar2L6QaBnCSJCugXrAT4swPR1605420040825_110x110"
            },
            {
              "width": 50,
              "height": 50,
              "url": "//image.pitchbook.com/UbnyCc4mTmS2JhgYkr6KunboqXjNP1605420040925_50x50"
            }
          ],
          "favicon": "//image.pitchbook.com/favicon/to8to-com.png",
          "companyPbId": "60503-95",
          "companyId": 561155
        },
        {
          "logos": [
            {
              "width": 200,
              "height": 200,
              "url": "//image.pitchbook.com/v9WFWq4lYjlXGwfO187poYTLqCh1611563558237_200x200"
            },
            {
              "width": 140,
              "height": 140,
              "url": "//image.pitchbook.com/WAoWEdrLSbvHfHNX242kXjTobrc1611563558629_140x140"
            },
            {
              "width": 70,
              "height": 70,
              "url": "//image.pitchbook.com/UsuRlWxFHNvR6D21hbpEUL4SFM4Sq1611563558785_70x70"
            },
            {
              "width": 110,
              "height": 110,
              "url": "//image.pitchbook.com/vCyNXzwNjV7YfgxhkGlEB5zfejC1611563558948_110x110"
            },
            {
              "width": 50,
              "height": 50,
              "url": "//image.pitchbook.com/E4gbEmgjZdutmg0ZRyh3rwn7rRNZ71611563559075_50x50"
            }
          ],
          "favicon": "//image.pitchbook.com/favicon/icims-com.png",
          "companyPbId": "53580-79",
          "companyId": 484231
        },
        {
          "logos": [
            {
              "width": 200,
              "height": 200,
              "url": "//image.pitchbook.com/oqXiiUeu3dEuQYmM3fzl3ZfweXn1614774683713_200x200"
            },
            {
              "width": 140,
              "height": 140,
              "url": "//image.pitchbook.com/J5Evgao8vACj0auvXyIQp4Wfa4u1614774683843_140x140"
            },
            {
              "width": 70,
              "height": 70,
              "url": "//image.pitchbook.com/pzDoWYT37KQzZ040BjfDUN2564wn81614774683988_70x70"
            },
            {
              "width": 110,
              "height": 110,
              "url": "//image.pitchbook.com/nwPKqylPm2PlTANfkxN5L28bcFq1614774684097_110x110"
            },
            {
              "width": 50,
              "height": 50,
              "url": "//image.pitchbook.com/WyJZUJol8vz2z2LpkXsXTuz5v60Qq1614774684213_50x50"
            }
          ],
          "companyPbId": "104056-21",
          "companyId": 1045069
        },
        {
          "logos": [
            {
              "width": 200,
              "height": 200,
              "url": "//image.pitchbook.com/TH0NwBk3FuGAxnHh2c02b7nitQ41631295718503_200x200"
            },
            {
              "width": 140,
              "height": 140,
              "url": "//image.pitchbook.com/aOA4Fbo1nEoiC5VL1APkCa2unE31631295718619_140x140"
            },
            {
              "width": 70,
              "height": 70,
              "url": "//image.pitchbook.com/n9xf1rJAiSQfeHT3ODHiNW40e0c7x1631295718810_70x70"
            },
            {
              "width": 110,
              "height": 110,
              "url": "//image.pitchbook.com/w9Sd4XcI8R0w0q9tWaBs7bGfLdX1631295718983_110x110"
            },
            {
              "width": 50,
              "height": 50,
              "url": "//image.pitchbook.com/JW52bZbEnyIgqwQNhZAwUev2oLlQZ1631295719125_50x50"
            }
          ],
          "favicon": "//image.pitchbook.com/favicon/empyrean-com-cn.png",
          "companyPbId": "265888-72",
          "companyId": 2843208
        },
        {
          "logos": [
            {
              "width": 200,
              "height": 200,
              "url": "//image.pitchbook.com/pPjqSTfuXp3qnDRzuwuxaVS7gmv1635224844794_200x200"
            },
            {
              "width": 140,
              "height": 140,
              "url": "//image.pitchbook.com/3lE8cxqbYHJWEqnqmDR3O4fz4u51635224844906_140x140"
            },
            {
              "width": 70,
              "height": 70,
              "url": "//image.pitchbook.com/iny9txUcXYM4TA5FwxCYbDu0zvbiu1635224845020_70x70"
            },
            {
              "width": 110,
              "height": 110,
              "url": "//image.pitchbook.com/rMKqbwW2bL35uIuXneDbG1AMjtT1635224845127_110x110"
            },
            {
              "width": 50,
              "height": 50,
              "url": "//image.pitchbook.com/dqtPz5blqRNnRFok8YpkHfnQGsTpr1635224845252_50x50"
            }
          ],
          "favicon": "//image.pitchbook.com/favicon/digitalwork-com.png",
          "companyPbId": "51224-05",
          "companyId": 458045
        },
        {
          "logos": [
            {
              "width": 200,
              "height": 200,
              "url": "//image.pitchbook.com/u3Oz0LDF8S4kgxQf9sGYfYdeTsd1628285201940_200x200"
            },
            {
              "width": 140,
              "height": 140,
              "url": "//image.pitchbook.com/afv5SGhOLeJmoIkkRnvcmcd4T7J1628285202077_140x140"
            },
            {
              "width": 70,
              "height": 70,
              "url": "//image.pitchbook.com/K0fZdfZoR9GPuyzyM7IbgsB6odrXJ1628285202199_70x70"
            },
            {
              "width": 110,
              "height": 110,
              "url": "//image.pitchbook.com/fTZCOXZtsb75v33trJABEZOHgxS1628285202311_110x110"
            },
            {
              "width": 50,
              "height": 50,
              "url": "//image.pitchbook.com/v1NwvEyIZLMmAmATpiEVKvX27weii1628285202427_50x50"
            }
          ],
          "favicon": "//image.pitchbook.com/favicon/ipinyou-com-cn.png",
          "companyPbId": "97869-16",
          "companyId": 976324
        },
        {
          "logos": [
            {
              "width": 200,
              "height": 200,
              "url": "//image.pitchbook.com/G9NZaI2ccSYj5W19yNY8oo6s0r11635986682281_200x200"
            },
            {
              "width": 140,
              "height": 140,
              "url": "//image.pitchbook.com/hz8TZmGmsK5FjimxwK1MawHHHCV1635986682400_140x140"
            },
            {
              "width": 70,
              "height": 70,
              "url": "//image.pitchbook.com/Dmy8H5n4g0aPbfFk5kti7bfv1HkWs1635986682515_70x70"
            },
            {
              "width": 110,
              "height": 110,
              "url": "//image.pitchbook.com/JS8YaK9lxj6w1Ey9R1n1pyWqbdM1635986682627_110x110"
            },
            {
              "width": 50,
              "height": 50,
              "url": "//image.pitchbook.com/YB2VfBHZBptg6JHTa8ns0kaCAlJbw1635986682740_50x50"
            }
          ],
          "favicon": "//image.pitchbook.com/favicon/certusnet-com-cn.png",
          "companyPbId": "83094-76",
          "companyId": 812164
        },
        {
          "logos": [
            {
              "width": 200,
              "height": 200,
              "url": "//image.pitchbook.com/C93a0unvlgiF4ozCQsX0jDOPL8Q1630340055698_200x200"
            },
            {
              "width": 140,
              "height": 140,
              "url": "//image.pitchbook.com/lzLXz0vNRILC8Y1sfqpl7vwzbcn1630340055895_140x140"
            },
            {
              "width": 70,
              "height": 70,
              "url": "//image.pitchbook.com/fXkzjQxPTJ7yGISs8sSxtFFLmQAz81630340056038_70x70"
            },
            {
              "width": 110,
              "height": 110,
              "url": "//image.pitchbook.com/kz9UhHMUAIJORzRjoVfF3kj2faY1630340056176_110x110"
            },
            {
              "width": 50,
              "height": 50,
              "url": "//image.pitchbook.com/TVtjtu1mzrEklXfHEPuiex0UuOppC1630340056299_50x50"
            }
          ],
          "companyPbId": "431309-26",
          "companyId": 4681214
        },
        {
          "logos": [
            {
              "width": 200,
              "height": 200,
              "url": "//image.pitchbook.com/RPYgvRcC10tSBa61gytqLx0a4LX1631359084081_200x200"
            },
            {
              "width": 140,
              "height": 140,
              "url": "//image.pitchbook.com/RV755rMAw84jh0NTdFdJ9kYBQ9C1631359084215_140x140"
            },
            {
              "width": 70,
              "height": 70,
              "url": "//image.pitchbook.com/qzyzZEICpEWCji6N1lUZNTgW47f321631359084332_70x70"
            },
            {
              "width": 110,
              "height": 110,
              "url": "//image.pitchbook.com/TRud3SZvqYwhCcznf638NPFe93x1631359084445_110x110"
            },
            {
              "width": 50,
              "height": 50,
              "url": "//image.pitchbook.com/aaBNruep6PGdkrWia8oqTQ8Ekf0Z11631359084560_50x50"
            }
          ],
          "favicon": "//image.pitchbook.com/favicon/chrysos-com-au.png",
          "companyPbId": "224111-44",
          "companyId": 2379016
        },
        {
          "logos": [
            {
              "width": 200,
              "height": 200,
              "url": "//image.pitchbook.com/sMz3xx7fw0smZ2eQTb0g48TbT0Y1605174931294_200x200"
            },
            {
              "width": 140,
              "height": 140,
              "url": "//image.pitchbook.com/6kgiy50WkgcxdQmkv2CvxIaWmRR1605174931431_140x140"
            },
            {
              "width": 70,
              "height": 70,
              "url": "//image.pitchbook.com/RM5oYM3sMR4kVcphHuJGws8VjrnTb1605174931545_70x70"
            },
            {
              "width": 110,
              "height": 110,
              "url": "//image.pitchbook.com/QXeUlIz27Ihz7LXD56mzHNihRh11605174931642_110x110"
            },
            {
              "width": 50,
              "height": 50,
              "url": "//image.pitchbook.com/dTqHm3qPb7iyVlEJcP0n43dfaHJ9m1605174931762_50x50"
            }
          ],
          "favicon": "//image.pitchbook.com/favicon/iczoom-com.jpeg",
          "companyPbId": "268220-44",
          "companyId": 2869116
        },
        {
          "logos": [
            {
              "width": 200,
              "height": 200,
              "url": "//image.pitchbook.com/ik9h6LmgbxWHubEtFfYZShpl0eC1605440351202_200x200"
            },
            {
              "width": 140,
              "height": 140,
              "url": "//image.pitchbook.com/Fd8uJS2xfX1FKhuyr666ZiyQQvc1605440351307_140x140"
            },
            {
              "width": 70,
              "height": 70,
              "url": "//image.pitchbook.com/sjKKBfiS0rf6lcShdreXPCqzJu4Bn1605440351427_70x70"
            },
            {
              "width": 110,
              "height": 110,
              "url": "//image.pitchbook.com/mGQqDgFoDmO3RyCQp5YNxw3Trix1605440351535_110x110"
            },
            {
              "width": 50,
              "height": 50,
              "url": "//image.pitchbook.com/pLWoB4hu3CeGBP34vzUCFuPJllYEz1605440351634_50x50"
            }
          ],
          "favicon": "//image.pitchbook.com/favicon/fincare-com.png",
          "companyPbId": "138546-19",
          "companyId": 1428291
        },
        {
          "logos": [
            {
              "width": 200,
              "height": 200,
              "url": "//image.pitchbook.com/hwUgPt0DQtoXQWj9ZYylNOxPPEy1610411153148_200x200"
            },
            {
              "width": 140,
              "height": 140,
              "url": "//image.pitchbook.com/1o33hHWv1fszAreQwn7NDtugzyu1610411153274_140x140"
            },
            {
              "width": 70,
              "height": 70,
              "url": "//image.pitchbook.com/dCyTzPf8oVhUSeiml5y2CB75AWIu91610411153383_70x70"
            },
            {
              "width": 110,
              "height": 110,
              "url": "//image.pitchbook.com/yKC1Kw74luoa4Yl8pLwn3QwDbX51610411153493_110x110"
            },
            {
              "width": 50,
              "height": 50,
              "url": "//image.pitchbook.com/PM3gvwXoMRksG8zHyVrPOBf5XooRL1610411153606_50x50"
            }
          ],
          "favicon": "//image.pitchbook.com/favicon/pingcoo-com.png",
          "companyPbId": "185928-04",
          "companyId": 1954756
        },
        {
          "logos": [
            {
              "width": 200,
              "height": 200,
              "url": "//image.pitchbook.com/tT2g8vnLn7t7cmBA462xVtsJPbV1632370159152_200x200"
            },
            {
              "width": 140,
              "height": 140,
              "url": "//image.pitchbook.com/e0Ub1ryVb8495j9QzwNWBWYhUXF1632370159271_140x140"
            },
            {
              "width": 70,
              "height": 70,
              "url": "//image.pitchbook.com/QuZeLDiOzgaO7wRg1IbRSugIGV4A61632370159401_70x70"
            },
            {
              "width": 110,
              "height": 110,
              "url": "//image.pitchbook.com/eMhCsBs5GfvD839rumd3toE9T601632370159536_110x110"
            },
            {
              "width": 50,
              "height": 50,
              "url": "//image.pitchbook.com/a3FoJuZRNTJG4dWV1XlTdO440SP4J1632370159646_50x50"
            }
          ],
          "favicon": "//image.pitchbook.com/favicon/babbel-com.png",
          "companyPbId": "56403-10",
          "companyId": 515590
        },
        {
          "logos": [
            {
              "width": 200,
              "height": 200,
              "url": "//image.pitchbook.com/iHZx8irWcfZp6zYFxWNtwoCOqfP1601307802765_200x200"
            },
            {
              "width": 140,
              "height": 140,
              "url": "//image.pitchbook.com/VAUvsnFPlzEbNRXakYn2RYnbBnE1601307802910_140x140"
            },
            {
              "width": 70,
              "height": 70,
              "url": "//image.pitchbook.com/w0BTptfvcMvL6sqzW2onJh6AQLF6J1601307803018_70x70"
            },
            {
              "width": 110,
              "height": 110,
              "url": "//image.pitchbook.com/CQn7df2Yp3Mwwy1xJx0cPuP8geE1601307803188_110x110"
            },
            {
              "width": 50,
              "height": 50,
              "url": "//image.pitchbook.com/9NmAkDFksFXEVWMgqojVQHuIPIQsB1601307803304_50x50"
            }
          ],
          "favicon": "//image.pitchbook.com/favicon/trocafone-com.png",
          "companyPbId": "99641-89",
          "companyId": 996021
        },
        {
          "logos": [
            {
              "width": 200,
              "height": 200,
              "url": "//image.pitchbook.com/0P9cGjyG9J9ucBn4zYtTlTb7YH01595913964327_200x200"
            },
            {
              "width": 140,
              "height": 140,
              "url": "//image.pitchbook.com/APNN2LdEBUc3ueK1KOzOQlSUaJj1595913964436_140x140"
            },
            {
              "width": 70,
              "height": 70,
              "url": "//image.pitchbook.com/eWWq93KP5oeeEV2usWz3vWcm68HmV1595913964541_70x70"
            },
            {
              "width": 110,
              "height": 110,
              "url": "//image.pitchbook.com/Xa4DJ8VaNALVuR6qDdw69rmccTR1595913964646_110x110"
            },
            {
              "width": 50,
              "height": 50,
              "url": "//image.pitchbook.com/3tHaDrPdDyG6YLiVWlkDvcpT197Fl1595913964781_50x50"
            }
          ],
          "favicon": "//image.pitchbook.com/favicon/photosynth-co-jp.png",
          "companyPbId": "169567-30",
          "companyId": 1772970
        },
        {
          "logos": [
            {
              "width": 200,
              "height": 200,
              "url": "//image.pitchbook.com/0wU5SkZYuAtsSJUHoaHa1TnuGDI1573037122835_200x200"
            },
            {
              "width": 140,
              "height": 140,
              "url": "//image.pitchbook.com/vIZyskRC4AP1keH8m197NL2930i1573037123050_140x140"
            },
            {
              "width": 70,
              "height": 70,
              "url": "//image.pitchbook.com/1di21UmKU2qVzLH1hZOWICFvi9plD1573037123191_70x70"
            },
            {
              "width": 110,
              "height": 110,
              "url": "//image.pitchbook.com/qwsnkoqmgBQ2Q8e906EZCOp4O2c1573037123338_110x110"
            },
            {
              "width": 50,
              "height": 50,
              "url": "//image.pitchbook.com/mni7pxa7B9p9w51kfVFgR7DUHxFLv1573037123542_50x50"
            }
          ],
          "favicon": "//image.pitchbook.com/favicon/tarya-co-il.png",
          "companyPbId": "158861-80",
          "companyId": 1654020
        },
        {
          "logos": [
            {
              "width": 200,
              "height": 200,
              "url": "//image.pitchbook.com/ZPg4OT3wOfU2EmS1Bt9n3N7rMi41564694413105_200x200"
            },
            {
              "width": 140,
              "height": 140,
              "url": "//image.pitchbook.com/9E9EXG6cBq8ynOSqMPYhSApqHGH1564694413275_140x140"
            },
            {
              "width": 70,
              "height": 70,
              "url": "//image.pitchbook.com/FGnnNsZOFaisag3zqqUN6LP4OON3q1564694413426_70x70"
            },
            {
              "width": 110,
              "height": 110,
              "url": "//image.pitchbook.com/32s65C4anDcvErAXbNYgD8yqoW01564694413576_110x110"
            },
            {
              "width": 50,
              "height": 50,
              "url": "//image.pitchbook.com/KSnYAeNgHP1b0iiAGQq1uXp7Jxx3P1564694413724_50x50"
            }
          ],
          "favicon": "//image.pitchbook.com/favicon/hanweb-com.png",
          "companyPbId": "267308-38",
          "companyId": 2858982
        },
        {
          "logos": [
            {
              "width": 200,
              "height": 200,
              "url": "//image.pitchbook.com/dfuSbMTiG2tSlsnpZa6AECdunIc1607103539644_200x200"
            },
            {
              "width": 140,
              "height": 140,
              "url": "//image.pitchbook.com/x2OzVjWuMJvqURpGrZLL3K8XbwR1607103539730_140x140"
            },
            {
              "width": 70,
              "height": 70,
              "url": "//image.pitchbook.com/odqTaAhy4YUHH5cfQkYsQiT8qB6OQ1607103539797_70x70"
            },
            {
              "width": 110,
              "height": 110,
              "url": "//image.pitchbook.com/849RhB0tq0iXLYtIC7PlJx1khor1607103539881_110x110"
            },
            {
              "width": 50,
              "height": 50,
              "url": "//image.pitchbook.com/wIQCMHL7rKIU29P54EXPPI74h52db1607103539945_50x50"
            }
          ],
          "favicon": "//image.pitchbook.com/favicon/intelinkgroup-com.png",
          "companyPbId": "454679-65",
          "companyId": 4940885
        },
        {
          "logos": [
            {
              "width": 200,
              "height": 200,
              "url": "//image.pitchbook.com/8OFGkTkNI97bYl0VnMTGtEh1An41575655310924_200x200"
            },
            {
              "width": 140,
              "height": 140,
              "url": "//image.pitchbook.com/Z3sjtxa7bu6LE3S4mvW8kUqhgCk1575655311203_140x140"
            },
            {
              "width": 70,
              "height": 70,
              "url": "//image.pitchbook.com/z4LQZz9fA8PlYkSuuhDQcFODiAb5j1575655311381_70x70"
            },
            {
              "width": 110,
              "height": 110,
              "url": "//image.pitchbook.com/SuL5Jivkd62i40hW4orKcilcWkx1575655311524_110x110"
            },
            {
              "width": 50,
              "height": 50,
              "url": "//image.pitchbook.com/zEF5O7N9EIwml0fIp3Knc2vRkPI4G1575655311666_50x50"
            }
          ],
          "favicon": "//image.pitchbook.com/favicon/leagsoft-com.png",
          "companyPbId": "343532-35",
          "companyId": 3705915
        },
        {
          "logos": [
            {
              "width": 200,
              "height": 200,
              "url": "//image.pitchbook.com/fDI4QWxLy59frmgYfMhH77XocNI1610612978506_200x200"
            },
            {
              "width": 140,
              "height": 140,
              "url": "//image.pitchbook.com/n1LuoWNXQs7LohSIUBFTNwf3HUR1610612978598_140x140"
            },
            {
              "width": 70,
              "height": 70,
              "url": "//image.pitchbook.com/U88mrM0paHkJn4UsiR7LqcOybqOpn1610612978720_70x70"
            },
            {
              "width": 110,
              "height": 110,
              "url": "//image.pitchbook.com/3pfvRBffgkNEtmf9ZqkastrNyrj1610612978848_110x110"
            },
            {
              "width": 50,
              "height": 50,
              "url": "//image.pitchbook.com/OxhnseGYK2F0qsd85a4wQ7hbe7FNL1610612978949_50x50"
            }
          ],
          "favicon": "//image.pitchbook.com/favicon/zeals-co-jp.png",
          "companyPbId": "433513-90",
          "companyId": 4705710
        },
        {
          "logos": [
            {
              "width": 200,
              "height": 200,
              "url": "//image.pitchbook.com/GhmDLnmBu0Oyu293J91YeagIja51621550458099_200x200"
            },
            {
              "width": 140,
              "height": 140,
              "url": "//image.pitchbook.com/9s6Flb4g99YdkQHRSHEs3C2yQ5p1621550458247_140x140"
            },
            {
              "width": 70,
              "height": 70,
              "url": "//image.pitchbook.com/wKEmRISQw6CCsxGhu4mEKKayYO0I41621550458359_70x70"
            },
            {
              "width": 110,
              "height": 110,
              "url": "//image.pitchbook.com/qprcnwVQava49STgTmMMf6a6uJp1621550458469_110x110"
            },
            {
              "width": 50,
              "height": 50,
              "url": "//image.pitchbook.com/qgtFRNbWmFYfN40BlSjhPzg3D8nzy1621550458582_50x50"
            }
          ],
          "companyPbId": "455196-88",
          "companyId": 4946632
        },
        {
          "logos": [
            {
              "width": 200,
              "height": 200,
              "url": "//image.pitchbook.com/NTIWzHkQ8hTXYCdlwFzOq4rbRxl1629392921682_200x200"
            },
            {
              "width": 140,
              "height": 140,
              "url": "//image.pitchbook.com/yHKjvZQMGKOzHBYWHT2n3howliZ1629392921793_140x140"
            },
            {
              "width": 70,
              "height": 70,
              "url": "//image.pitchbook.com/JgbVMLf5Vhqe3jbkyCdnUjkr2OGYT1629392921896_70x70"
            },
            {
              "width": 110,
              "height": 110,
              "url": "//image.pitchbook.com/WjKBd9Li3gYrrzww5RaRw0dyZo21629392922005_110x110"
            },
            {
              "width": 50,
              "height": 50,
              "url": "//image.pitchbook.com/ycTNp4odvXpqa2hBumzO1QZipzxqz1629392922147_50x50"
            }
          ],
          "favicon": "//image.pitchbook.com/favicon/pagero-com.png",
          "companyPbId": "108785-71",
          "companyId": 1097619
        },
        {
          "logos": [
            {
              "width": 200,
              "height": 200,
              "url": "//image.pitchbook.com/v8IRs9Nq895zyAAnBX0BUi1Tj5U1636440229260_200x200"
            },
            {
              "width": 140,
              "height": 140,
              "url": "//image.pitchbook.com/2fMo2ycxtydFPtdgCJQvidoVvao1636440229477_140x140"
            },
            {
              "width": 70,
              "height": 70,
              "url": "//image.pitchbook.com/58IfQCbu096Ft0MXTY5r4sQ00jY511636440229600_70x70"
            },
            {
              "width": 110,
              "height": 110,
              "url": "//image.pitchbook.com/Z4TLto3CW9SVjdqMIjGDEZaG84Z1636440229826_110x110"
            },
            {
              "width": 50,
              "height": 50,
              "url": "//image.pitchbook.com/Ew2FQHljYrcc0wBXppOqA3MQEkloF1636440230093_50x50"
            }
          ],
          "companyPbId": "305340-49",
          "companyId": 3281561
        },
        {
          "logos": [
            {
              "width": 200,
              "height": 200,
              "url": "//image.pitchbook.com/UDmSvEpQnDvPAjsBO02AXyHsPAJ1605356804253_200x200"
            },
            {
              "width": 140,
              "height": 140,
              "url": "//image.pitchbook.com/XWoDhS984KIi46opy72BJguG1Oh1605356804355_140x140"
            },
            {
              "width": 70,
              "height": 70,
              "url": "//image.pitchbook.com/rGX4RkHFqSyYG86PLgcYAI6l0zGjA1605356804455_70x70"
            },
            {
              "width": 110,
              "height": 110,
              "url": "//image.pitchbook.com/LTbGYkU8MygF4jIrix5bGQ24IhC1605356804557_110x110"
            },
            {
              "width": 50,
              "height": 50,
              "url": "//image.pitchbook.com/aRe5B5SKk8eBBJ7ZX4NhZNxj1f2DO1605356804651_50x50"
            }
          ],
          "companyPbId": "161961-49",
          "companyId": 1688461
        },
        {
          "logos": [
            {
              "width": 200,
              "height": 200,
              "url": "//image.pitchbook.com/HS4B9HKCfGH4Ztw3hwV3IOvHaEC1626413921359_200x200"
            },
            {
              "width": 140,
              "height": 140,
              "url": "//image.pitchbook.com/etadaLgnpctUEpgDX6uNfPApGm81626413921699_140x140"
            },
            {
              "width": 70,
              "height": 70,
              "url": "//image.pitchbook.com/cSUacOh6PRXvqx8mlUMwzhKib8pO01626413922010_70x70"
            },
            {
              "width": 110,
              "height": 110,
              "url": "//image.pitchbook.com/j7faNqGT2oOHR4YkeX9vYpxliJ41626413922126_110x110"
            },
            {
              "width": 50,
              "height": 50,
              "url": "//image.pitchbook.com/tRUnEmA4AsIF6HbHGm5mzRWLKmZqp1626413922257_50x50"
            }
          ],
          "favicon": "//image.pitchbook.com/favicon/hejalbert-se.png",
          "companyPbId": "156931-75",
          "companyId": 1632575
        },
        {
          "logos": [
            {
              "width": 200,
              "height": 200,
              "url": "//image.pitchbook.com/yWiZZgvJdT0ovkt4kaFnnR5lXjk1598288424391_200x200"
            },
            {
              "width": 140,
              "height": 140,
              "url": "//image.pitchbook.com/1xyE7XHr4JEr81EblNZOqSknTaB1598288424521_140x140"
            },
            {
              "width": 70,
              "height": 70,
              "url": "//image.pitchbook.com/l9TwkFgpHIb68oVfjcc41IF7tykz61598288424679_70x70"
            },
            {
              "width": 110,
              "height": 110,
              "url": "//image.pitchbook.com/pLen6VkrkfMI9fmWxdMsOE9hLK61598288424791_110x110"
            },
            {
              "width": 50,
              "height": 50,
              "url": "//image.pitchbook.com/ZNSJss7MD8DwKm4UMPdjEhqLwZRH71598288424922_50x50"
            }
          ],
          "favicon": "//image.pitchbook.com/favicon/mucang-cn.png",
          "companyPbId": "91466-11",
          "companyId": 905179
        },
        {
          "logos": [
            {
              "width": 200,
              "height": 200,
              "url": "//image.pitchbook.com/CrSRDmijOQP1qMM4SxLuEvPtKln1635511512480_200x200"
            },
            {
              "width": 140,
              "height": 140,
              "url": "//image.pitchbook.com/KgrDfHLVUFrs5N7vJq7ot3pQHyu1635511512549_140x140"
            },
            {
              "width": 70,
              "height": 70,
              "url": "//image.pitchbook.com/IGTPwxjKfrOv6fNNYtcsioWXdP7WJ1635511512618_70x70"
            },
            {
              "width": 110,
              "height": 110,
              "url": "//image.pitchbook.com/3IExyfozg7HhdzekAcfnhbrZUg31635511512685_110x110"
            },
            {
              "width": 50,
              "height": 50,
              "url": "//image.pitchbook.com/OjaXVYGunCTtgrLEsxIM5Us4Zamxw1635511512772_50x50"
            }
          ],
          "favicon": "//image.pitchbook.com/favicon/myrewardsinternational-com.png",
          "companyPbId": "483342-40",
          "companyId": 5259360
        },
        {
          "logos": [
            {
              "width": 200,
              "height": 200,
              "url": "//image.pitchbook.com/OdzwlgXI8G7fo0pvLCLSJa0vGNv1630696134812_200x200"
            },
            {
              "width": 140,
              "height": 140,
              "url": "//image.pitchbook.com/MwAVT2ESdRUV8YWwVItmCF0tdEi1630696134946_140x140"
            },
            {
              "width": 70,
              "height": 70,
              "url": "//image.pitchbook.com/5EVZ7V5NSMVl2LyZX3gU0uDoLlIny1630696135049_70x70"
            },
            {
              "width": 110,
              "height": 110,
              "url": "//image.pitchbook.com/ZJqCwxhEgSE1ZoRgMldd9MnN6Dv1630696135163_110x110"
            },
            {
              "width": 50,
              "height": 50,
              "url": "//image.pitchbook.com/8Q2ma8sE6ze9bpM0ddOP6pfdPGqeB1630696135334_50x50"
            }
          ],
          "companyPbId": "472293-46",
          "companyId": 5136594
        },
        {
          "logos": [],
          "companyPbId": "470660-68",
          "companyId": 5118452
        },
        {
          "logos": [
            {
              "width": 200,
              "height": 200,
              "url": "//image.pitchbook.com/4yvHqBG2iBYQWkhyiAKyBz3ZY7W1630513953024_200x200"
            },
            {
              "width": 140,
              "height": 140,
              "url": "//image.pitchbook.com/YEgItr7n38HFn12imE9orZVMP1D1630513953884_140x140"
            },
            {
              "width": 70,
              "height": 70,
              "url": "//image.pitchbook.com/CZo0JGyEHODLCl1vIUcsmmSy7db5h1630513954420_70x70"
            },
            {
              "width": 110,
              "height": 110,
              "url": "//image.pitchbook.com/OkYgL1qFwFOZLwr1QU0Gc0n2J1N1630513954910_110x110"
            },
            {
              "width": 50,
              "height": 50,
              "url": "//image.pitchbook.com/HCbaxXEYGSXjguijJfMyJQZ86Zj831630513955439_50x50"
            }
          ],
          "favicon": "//image.pitchbook.com/favicon/southwestbrands-co.png",
          "companyPbId": "459598-60",
          "companyId": 4995540
        },
        {
          "logos": [
            {
              "width": 200,
              "height": 200,
              "url": "//image.pitchbook.com/8Xz0ik9bD4ADBTZVXyxYh9ggL1F1591849803664_200x200"
            },
            {
              "width": 140,
              "height": 140,
              "url": "//image.pitchbook.com/mTtRRYXKDx51SaDoFdoLuXF5aXP1591849803958_140x140"
            },
            {
              "width": 70,
              "height": 70,
              "url": "//image.pitchbook.com/Fi8TcPtqLq1DkAHqK24NgSj8bT6TK1591849804140_70x70"
            },
            {
              "width": 110,
              "height": 110,
              "url": "//image.pitchbook.com/iLUxzfVbqQrPirYLGLiHmbFVsZQ1591849804277_110x110"
            },
            {
              "width": 50,
              "height": 50,
              "url": "//image.pitchbook.com/bFxqq5XRpFrW4xO7Sz6XIyrv1fddP1591849804385_50x50"
            }
          ],
          "favicon": "//image.pitchbook.com/favicon/picpay-com.png",
          "companyPbId": "227755-09",
          "companyId": 2419501
        }
      ],
      "segments": []
    }
  ]
}